#FlameMaster    Cantera
H           H
O           O
OH          OH
HO2         HO2
H2          H2
H2O         H2O
H2O2        H2O2
O2          O2
CH2         CH2
CH2*        CH2*
CH3         CH3
CH4         CH4
HCO         HCO
CH2O        CH2O
CH3O        CH3O
CO          CO
CO2         CO2
C2H2        C2H2
C2H3        C2H3
C2H4        C2H4
C2H5        C2H5
C2H6        C2H6
CH2CHO      CH2CHO
aC3H5       aC3H5
C3H6        C3H6
nC3H7       nC3H7
C2H3CHO     C2H3CHO
C4H81       C4H81
NC12H26     NC12H26
C6H12       C6H12
N2          N2


